Predicting book success
…
Publisher and gender relationship.

Note that there is an Goodreads API and that somebody has written an R interface to it, however we do not have enough time to explore it and get it to do as we want. What we will do instead is use the data set found on Kaggle heretogether with the Goodreads API to answer some of the questions above.

First we import the data and take a good look.

books <- read_csv("data/books.csv") %>%
    rename(rating = average_rating,
           total_ratings = ratings_count,
           lang = language_code,
           pages = num_pages)
books

## # A tibble: 8,472 x 12
##    bookID title authors rating isbn  isbn13 lang  pages total_ratings
##     <dbl> <chr> <chr>    <dbl> <chr> <chr>  <chr> <dbl>         <dbl>
##  1      1 "Har J.K. R   4.57 0439 97804 eng     652       2095690
##  2      2 "Har J.K. R   4.49 0439 97804 eng     870       2153167
##  3      4 "Har J.K. R   4.42 0439 97804 eng     352          6333
##  4      5 "Har J.K. R   4.56 0439 97804 eng     435       2339585
##  5      8 "Har J.K. R   4.78 0439 97804 eng    2690         41428
##  6      9 "Una W. Fre   3.74 0976 97809 en-US   152            19
##  7     10 "Har J.K. R   4.73 0439 97804 eng    3342         28242
##  8     12 "The Dougla   4.38 0517 97805 eng     815          3628
##  9     13 "The Dougla   4.38 0345 97803 eng     815        249558
## 10     14 "The Dougla   4.22 1400 97814 eng     215          4930
## #  with 8,462 more rows, and 3 more variables: text_reviews_count <dbl>,
## #   publication_date <chr>, publisher <chr>
…
